{
    "KPackageStructure": "Plasma/Applet",
    "KPlugin": {
        "Authors": [
            {
                "Email": "mklapetek@kde.org",
                "Name": "Martin Klapetek",
                "Name[ar]": "Martin Klapetek",
                "Name[az]": "Martin Klapetek",
                "Name[be]": "Martin Klapetek",
                "Name[bg]": "Martin Klapetek",
                "Name[ca@valencia]": "Martin Klapetek",
                "Name[ca]": "Martin Klapetek",
                "Name[cs]": "Martin Klapetek",
                "Name[da]": "Martin Klapetek",
                "Name[de]": "Martin Klapetek",
                "Name[en_GB]": "Martin Klapetek",
                "Name[eo]": "Martin Klapetek",
                "Name[es]": "Martin Klapetek",
                "Name[et]": "Martin Klapetek",
                "Name[eu]": "Martin Klapetek",
                "Name[fi]": "Martin Klapetek",
                "Name[fr]": "Martin Klapetek",
                "Name[gl]": "Martin Klapetek",
                "Name[he]": "מרטין קלפיטק",
                "Name[hi]": "मार्टिन क्लैपेटेक",
                "Name[hu]": "Martin Klapetek",
                "Name[ia]": "Martin Klapetek",
                "Name[id]": "Martin Klapetek",
                "Name[is]": "Martin Klapetek",
                "Name[it]": "Martin Klapetek",
                "Name[ja]": "Martin Klapetek",
                "Name[ka]": "Martin Klapetek",
                "Name[ko]": "Martin Klapetek",
                "Name[lt]": "Martin Klapetek",
                "Name[nl]": "Martin Klapetek",
                "Name[nn]": "Martin Klapetek",
                "Name[pl]": "Martin Klapetek",
                "Name[pt]": "Martin Klapetek",
                "Name[pt_BR]": "Martin Klapetek",
                "Name[ro]": "Martin Klapetek",
                "Name[ru]": "Martin Klapetek",
                "Name[sa]": "मार्टिन् क्लापेटेक्",
                "Name[sk]": "Martin Klapetek",
                "Name[sl]": "Martin Klapetek",
                "Name[sv]": "Martin Klapetek",
                "Name[ta]": "மார்ட்டின் கிலேப்பெட்டெக்",
                "Name[tr]": "Martin Klapetek",
                "Name[uk]": "Martin Klapetek",
                "Name[vi]": "Martin Klapetek",
                "Name[x-test]": "xxMartin Klapetekxx",
                "Name[zh_CN]": "Martin Klapetek",
                "Name[zh_TW]": "Martin Klapetek"
            }
        ],
        "BugReportUrl": "https://bugs.kde.org/enter_bug.cgi?product=plasmashell&component=Digital%20Clock",
        "Category": "Date and Time",
        "Description": "Time displayed in a digital format",
        "Description[ar]": "الوقت بتنسيق رقميّ",
        "Description[az]": "Saat, rəqəmsal formatda göstərilir",
        "Description[be]": "Час у лічбавым фармаце",
        "Description[bg]": "Представяне на часа в цифров формат",
        "Description[ca@valencia]": "Mostra l'hora en un format digital",
        "Description[ca]": "Mostra l'hora en un format digital",
        "Description[cs]": "Čas zobrazený v digitální podobě",
        "Description[da]": "Tiden vist i et digitalt format",
        "Description[de]": "Die Uhrzeit in digitaler Form anzeigen",
        "Description[en_GB]": "Time displayed in a digital format",
        "Description[eo]": "Tempo montrita en cifereca formato",
        "Description[es]": "La hora mostrada en formato digital",
        "Description[et]": "Aja esitamine digitaalsel kujul",
        "Description[eu]": "Ordua formatu digitalean azaldua",
        "Description[fi]": "Digitaalimuodossa esitetty aika",
        "Description[fr]": "Affichage de l'heure au format numérique",
        "Description[gl]": "A hora amosada nun formato dixital.",
        "Description[he]": "השעה מוצגת באופן דיגיטלי",
        "Description[hi]": "डिजिटल प्रारूप में प्रदर्शित समय",
        "Description[hu]": "Digitális formában kijelzett idő",
        "Description[ia]": "Tempore monstrate in formato digital",
        "Description[id]": "Waktu ditampilkan dalam format digital",
        "Description[is]": "Klukkan sýnd á stafrænu formi",
        "Description[it]": "Ora visualizzata in un formato digitale",
        "Description[ja]": "デジタル形式で表示される時刻",
        "Description[ka]": "დროის ციფრული ფორმატი",
        "Description[ko]": "디지털 형식으로 시간 표시",
        "Description[lt]": "Laikas rodomas skaitmeniniu formatu",
        "Description[nl]": "Tijd weergegeven in een digitale opmaak",
        "Description[nn]": "Klokka vist i digitalformat",
        "Description[pa]": "ਡਿਜਿਟਲ ਫਾਰਮੈਟ ਵਿੱਚ ਸਮਾਂ ਵੇਖੋ",
        "Description[pl]": "Wyświetla czas w formacie cyfrowym",
        "Description[pt]": "A hora apresentada num formato digital",
        "Description[pt_BR]": "Hora exibida em formato digital",
        "Description[ro]": "Ora afișată în format digital",
        "Description[ru]": "Показ времени цифрами",
        "Description[sa]": "अङ्कीयस्वरूपेण प्रदर्शितः समयः",
        "Description[sk]": "Čas zobrazený v digitálnom formáte",
        "Description[sl]": "Prikaz časa v digitalni obliki",
        "Description[sv]": "Tid visad med digitalformat",
        "Description[ta]": "எண் வடிவில் நேரத்தைக் காட்டும்",
        "Description[tr]": "Sayısal biçimde gösterilen saat",
        "Description[uk]": "Час, показаний у цифровому форматі",
        "Description[vi]": "Thời gian hiển thị ở dạng số",
        "Description[x-test]": "xxTime displayed in a digital formatxx",
        "Description[zh_CN]": "用数字格式显示时间的小程序",
        "Description[zh_TW]": "以數位格式顯示時間",
        "FormFactors": [
            "tablet",
            "handset",
            "desktop"
        ],
        "Icon": "preferences-system-time",
        "Id": "org.kde.plasma.digitalclock",
        "License": "GPL-2.0+",
        "Name": "Digital Clock",
        "Name[af]": "Digitale horlosie",
        "Name[ar]": "ساعة رقمية",
        "Name[ast]": "Reló dixital",
        "Name[az]": "Rəqəmsal saat",
        "Name[be@latin]": "Ličbavy hadzińnik",
        "Name[be]": "Лічбавы гадзіннік",
        "Name[bg]": "Цифров часовник",
        "Name[bn]": "ডিজিটাল ঘড়ি",
        "Name[bn_IN]": "ডিজিট্যাল ঘড়ি",
        "Name[bs]": "Digitalni sat",
        "Name[ca@valencia]": "Rellotge digital",
        "Name[ca]": "Rellotge digital",
        "Name[cs]": "Digitální hodiny",
        "Name[csb]": "Cyfrowi zédżer",
        "Name[da]": "Digitalt ur",
        "Name[de]": "Digitale Uhr",
        "Name[el]": "Ψηφιακό ρολόι",
        "Name[en_GB]": "Digital Clock",
        "Name[eo]": "Cifereca horloĝo",
        "Name[es]": "Reloj digital",
        "Name[et]": "Digikell",
        "Name[eu]": "Erloju digitala",
        "Name[fi]": "Digitaalinen kello",
        "Name[fr]": "Horloge numérique",
        "Name[fy]": "Digitale klok",
        "Name[ga]": "Clog Digiteach",
        "Name[gl]": "Reloxo dixital",
        "Name[gu]": "ડિજીટલ ઘડિયાળ",
        "Name[he]": "שעון דיגיטלי",
        "Name[hi]": "डिजिटल घड़ी",
        "Name[hne]": "डिजिटल घड़ी",
        "Name[hr]": "Digitalni sat",
        "Name[hsb]": "Digitalny časnik",
        "Name[hu]": "Digitális óra",
        "Name[ia]": "Horologio digital",
        "Name[id]": "Jam Digital",
        "Name[is]": "Stafræn klukka",
        "Name[it]": "Orologio digitale",
        "Name[ja]": "デジタル時計",
        "Name[ka]": "ციფრული საათი",
        "Name[kk]": "Цифрлық сағат",
        "Name[km]": "នាឡិកា​ឌីជីថល",
        "Name[kn]": "ಅಂಕೀಯ (ಡಿಜಿಟಲ್) ಗಡಿಯಾರ",
        "Name[ko]": "디지털 시계",
        "Name[ku]": "Demjimêra Dîjîtal",
        "Name[lt]": "Skaitmeninis laikrodis",
        "Name[lv]": "Ciparu pulkstenis",
        "Name[mai]": "डिजिटल घडी",
        "Name[mk]": "Дигитален часовник",
        "Name[ml]": "ഡിജിറ്റല്‍ ഘടികാരം",
        "Name[mr]": "डिजिटल घड्याळ",
        "Name[nb]": "Digital klokke",
        "Name[nds]": "Digitaal Klock",
        "Name[ne]": "डिजिटल घडी",
        "Name[nl]": "Digitale klok",
        "Name[nn]": "Digital klokke",
        "Name[oc]": "Relòtge numeric",
        "Name[or]": "ସାଂଖିକ ଘଡ଼ି",
        "Name[pa]": "ਡਿਜਿਟਲ ਘੜੀ",
        "Name[pl]": "Zegar cyfrowy",
        "Name[pt]": "Relógio Digital",
        "Name[pt_BR]": "Relógio digital",
        "Name[ro]": "Ceas digital",
        "Name[ru]": "Цифровые часы",
        "Name[sa]": "अङ्कीयघटिका",
        "Name[se]": "Digitálalaš diibmu",
        "Name[si]": "අංකිත ඔරලෝසුව",
        "Name[sk]": "Digitálne hodiny",
        "Name[sl]": "Digitalna ura",
        "Name[sr@ijekavian]": "дигитални сат",
        "Name[sr@ijekavianlatin]": "digitalni sat",
        "Name[sr@latin]": "digitalni sat",
        "Name[sr]": "дигитални сат",
        "Name[sv]": "Digitalklocka",
        "Name[ta]": "எண்ணுரு கடிகாரம்",
        "Name[te]": "డిజిటల్ గడియారం",
        "Name[tg]": "Соати рақамӣ",
        "Name[th]": "นาฬิกาดิจิทัล",
        "Name[tr]": "Sayısal Saat",
        "Name[ug]": "رەقەملىك سائەت",
        "Name[uk]": "Цифровий годинник",
        "Name[uz@cyrillic]": "Рақамли соат",
        "Name[uz]": "Raqamli soat",
        "Name[vi]": "Đồng hồ số",
        "Name[wa]": "Ôrlodje didjitåle",
        "Name[x-test]": "xxDigital Clockxx",
        "Name[zh_CN]": "数字时钟",
        "Name[zh_TW]": "數位時鐘",
        "Website": "https://kde.org/plasma-desktop"
    },
    "X-KDE-ParentApp": "org.kde.plasmashell",
    "X-Plasma-API-Minimum-Version": "6.0",
    "X-Plasma-Provides": [
        "org.kde.plasma.time",
        "org.kde.plasma.date"
    ]
}
